{"success":true,"message":"Request processed successfully","data":{"items":[{"enrollmentId":73,"studentId":23,"courseId":2,"enrollDate":"2026-05-10T09:55:36.29","status":"Dropped","student":{"studentId":23,"fullName":"Lê Văn Xuân","email":"xuan.levan@student.fpt.edu.vn","dateOfBirth":"2001-07-08T00:00:00"},"course":null},{"enrollmentId":437,"studentId":37,"courseId":9,"enrollDate":"2026-05-10T09:55:36.29","status":"Active","student":{"studentId":37,"fullName":"Dương Thị Liên","email":"lien.duongthi@student.fpt.edu.vn","dateOfBirth":"2003-05-09T00:00:00"},"course":null},{"enrollmentId":439,"studentId":39,"courseId":9,"enrollDate":"2026-05-10T09:55:36.29","status":"Active","student":{"studentId":39,"fullName":"Lưu Thị Nga","email":"nga.luuthi@student.fpt.edu.vn","dateOfBirth":"2002-06-24T00:00:00"},"course":null},{"enrollmentId":90,"studentId":40,"courseId":2,"enrollDate":"2026-05-08T09:55:36.29","status":"Active","student":{"studentId":40,"fullName":"Tạ Văn Ổn","email":"on.tavan@student.fpt.edu.vn","dateOfBirth":"2003-04-12T00:00:00"},"course":null},{"enrollmentId":109,"studentId":9,"courseId":3,"enrollDate":"2026-05-03T09:55:36.29","status":"Dropped","student":{"studentId":9,"fullName":"Ngô Văn Hùng","email":"hung.ngovan@student.fpt.edu.vn","dateOfBirth":"2001-12-14T00:00:00"},"course":null},{"enrollmentId":433,"studentId":33,"courseId":9,"enrollDate":"2026-05-03T09:55:36.29","status":"Dropped","student":{"studentId":33,"fullName":"Trương Thị Giang","email":"giang2.truongthi@student.fpt.edu.vn","dateOfBirth":"2002-03-05T00:00:00"},"course":null},{"enrollmentId":487,"studentId":37,"courseId":10,"enrollDate":"2026-04-30T09:55:36.29","status":"Dropped","student":{"studentId":37,"fullName":"Dương Thị Liên","email":"lien.duongthi@student.fpt.edu.vn","dateOfBirth":"2003-05-09T00:00:00"},"course":null},{"enrollmentId":124,"studentId":24,"courseId":3,"enrollDate":"2026-04-28T09:55:36.29","status":"Dropped","student":{"studentId":24,"fullName":"Phạm Minh Yến","email":"yen.phammiinh@student.fpt.edu.vn","dateOfBirth":"2002-05-31T00:00:00"},"course":null},{"enrollmentId":9,"studentId":9,"courseId":1,"enrollDate":"2026-04-28T09:55:36.29","status":"Dropped","student":{"studentId":9,"fullName":"Ngô Văn Hùng","email":"hung.ngovan@student.fpt.edu.vn","dateOfBirth":"2001-12-14T00:00:00"},"course":null},{"enrollmentId":265,"studentId":15,"courseId":6,"enrollDate":"2026-04-27T09:55:36.29","status":"Active","student":{"studentId":15,"fullName":"Hồ Văn Oanh","email":"oanh.hovan@student.fpt.edu.vn","dateOfBirth":"2002-11-09T00:00:00"},"course":null}],"pagination":{"page":1,"pageSize":10,"totalItems":500,"totalPages":50}},"errors":null}